{
  "templates": [
    {
      "template": "<div style=\"background:#eeeeee;border:1px solid #cccccc;padding:5px 10px;\">\n<h1><span style=\"color:#cc6633;\"><span style=\"font-family:Arial,Helvetica,sans-serif;\">Programista JSC&nbsp;</span></span></h1>\n\n<p><font face=\"Arial, Helvetica, sans-serif\">fjashfjasf aafshk a</font></p>\n\n<p><font face=\"Arial, Helvetica, sans-serif\">\\fas fasf asfa</font></p>\n</div>\n",
      "name": "gdesgsdfghs",
      "id": 1
    },
    {
      "template": "<h1><span style=\"color:#16a085;\"><span style=\"font-family:Arial,Helvetica,sans-serif;\"><span style=\"font-size:36px;\"><span style=\"background-color:#e74c3c;\">fh</span></span></span></span></h1>\n\n<p>dfh</p>\n\n<p>dfhdfhdfh</p>\n",
      "name": "hfdhdfh",
      "id": 2
    }
  ]
}